Final Project – STA 9750 Submission Material
…
    # Use a real Date for the month key (first day of month)
    month = make_date(year = yr, month = m, day = 1L)
  ) %>%
  group_by(boro, month) %>%
  summarise(
    total_traffic = sum(vol, na.rm = TRUE),
    .groups = "drop"
  )

traffic_monthly_boro

# A tibble: 31 × 3
   boro     month      total_traffic
   <chr>    <date>             <dbl>
 1 Bronx    2024-01-01         19638
 2 Bronx    2024-02-01         40174
 3 Bronx    2024-03-01        418740
 4 Bronx    2024-04-01        126482
 5 Bronx    2024-05-01        142994
 6 Bronx    2024-06-01         38618
 7 Bronx    2024-09-01        156352
 8 Brooklyn 2024-01-01         37053
 9 Brooklyn 2024-02-01        153258
10 Brooklyn 2024-03-01        344629
# ℹ 21 more rows
…
complaints_monthly_boro <- data_311_2024 %>%
  mutate(
    created_ts = ymd_hms(created_date),
    month      = floor_date(created_ts, "month")
  ) %>%
  group_by(borough, month) %>%
  summarise(
    total_complaints = n(),
    .groups = "drop"
  )

complaints_monthly_boro

# A tibble: 72 × 3
   borough month               total_complaints
   <chr>   <dttm>                         <int>
 1 BRONX   2024-01-01 00:00:00            61455
 2 BRONX   2024-02-01 00:00:00            49463
 3 BRONX   2024-03-01 00:00:00            52038
 4 BRONX   2024-04-01 00:00:00            52099
 5 BRONX   2024-05-01 00:00:00            51409
 6 BRONX   2024-06-01 00:00:00            59366
 7 BRONX   2024-07-01 00:00:00            63434
 8 BRONX   2024-08-01 00:00:00            58356
 9 BRONX   2024-09-01 00:00:00            69357
10 BRONX   2024-10-01 00:00:00            64720
# ℹ 62 more rows
…
These two datasets were then merged into a single table, enabling direct comparison between traffic volume, complaint frequency, and their changes over time.

Show Code

combined_boro_month <- traffic_monthly_boro %>%
  mutate(boro = toupper(boro)) %>%
  inner_join(
    complaints_monthly_boro %>%
      mutate(borough = toupper(borough)),
    by = c("boro" = "borough", "month")
  )

combined_boro_month

# A tibble: 31 × 4
   boro     month               total_traffic total_complaints
   <chr>    <dttm>                      <dbl>            <int>
 1 BRONX    2024-01-01 00:00:00         19638            61455
 2 BRONX    2024-02-01 00:00:00         40174            49463
 3 BRONX    2024-03-01 00:00:00        418740            52038
 4 BRONX    2024-04-01 00:00:00        126482            52099
 5 BRONX    2024-05-01 00:00:00        142994            51409
 6 BRONX    2024-06-01 00:00:00         38618            59366
 7 BRONX    2024-09-01 00:00:00        156352            69357
 8 BROOKLYN 2024-01-01 00:00:00         37053            91110
 9 BROOKLYN 2024-02-01 00:00:00        153258            74335
10 BROOKLYN 2024-03-01 00:00:00        344629            81701
# ℹ 21 more rows
…
boro_month_roll

# A tibble: 31 × 5
# Groups:   boro [5]
   boro     month               total_traffic total_complaints roll_corr_3m
   <chr>    <dttm>                      <dbl>            <int>        <dbl>
 1 BRONX    2024-01-01 00:00:00         19638            61455       NA    
 2 BRONX    2024-02-01 00:00:00         40174            49463       NA    
 3 BRONX    2024-03-01 00:00:00        418740            52038       -0.356
 4 BRONX    2024-04-01 00:00:00        126482            52099        0.661
 5 BRONX    2024-05-01 00:00:00        142994            51409        0.383
 6 BRONX    2024-06-01 00:00:00         38618            59366       -0.998
 7 BRONX    2024-09-01 00:00:00        156352            69357        0.168
 8 BROOKLYN 2024-01-01 00:00:00         37053            91110       NA    
 9 BROOKLYN 2024-02-01 00:00:00        153258            74335       NA    
10 BROOKLYN 2024-03-01 00:00:00        344629            81701       -0.438
# ℹ 21 more rows
…
